7주차/controller/simulation/qsim/controller.msim.vcd
$comment
	File created using the following command:
		vcd file controller.msim.vcd -direction
$end
$date
	Mon Nov 21 13:52:27 2022
$end
$version
	ModelSim Version 10.1d
$end
$timescale
	1ps
$end
$scope module controller_vlg_vec_tst $end
$var reg 1 ! clk $end
$var reg 1 " lt $end
$var reg 1 # reset $end
$var reg 1 $ start $end
$var wire 1 % load $end
$var wire 1 & ready $end
$var wire 1 ' shift $end
$var wire 1 ( subshift $end
$var wire 1 ) sampler $end
$scope module i1 $end
$var wire 1 * gnd $end
$var wire 1 + vcc $end
$var wire 1 , unknown $end
$var tri1 1 - devclrn $end
$var tri1 1 . devpor $end
$var tri1 1 / devoe $end
$var wire 1 0 count[1]~1_combout $end
$var wire 1 1 clk~input_o $end
$var wire 1 2 clk~inputclkctrl_outclk $end
$var wire 1 3 load~output_o $end
$var wire 1 4 shift~output_o $end
$var wire 1 5 subshift~output_o $end
$var wire 1 6 ready~output_o $end
$var wire 1 7 start~input_o $end
$var wire 1 8 count[0]~0_combout $end
$var wire 1 9 reset~input_o $end
$var wire 1 : reset~inputclkctrl_outclk $end
$var wire 1 ; state~0_combout $end
$var wire 1 < state~q $end
$var wire 1 = load~0_combout $end
$var wire 1 > lt~input_o $end
$var wire 1 ? shift~0_combout $end
$var wire 1 @ subshift~0_combout $end
$var wire 1 A ready~0_combout $end
$var wire 1 B count [1] $end
$var wire 1 C count [0] $end
$upscope $end
$upscope $end
$enddefinitions $end
#0
$dumpvars
0!
0"
0#
0$
x%
x&
x'
x(
x)
0*
1+
x,
1-
1.
1/
x0
01
x2
x3
x4
x5
x6
07
x8
09
x:
x;
0<
x=
0>
x?
x@
xA
0C
0B
$end
#173
0:
02
#816
0@
#817
0?
#910
0A
#3496
0=
#3823
0;
#3825
08
#3826
00
#4017
04
0'
#4054
05
0(
#4136
16
1&
#5000
1!
0)
#5730
11
#5917
12
#6736
03
0%
#10000
0!
1)
#10836
01
#11009
02
#15000
1!
0)
#15730
11
#15917
12
#20000
0!
1)
#20836
01
#21009
02
#25000
1"
1#
1$
1!
0)
#25650
1>
#25670
17
#25720
19
#25730
11
#25907
1:
#25917
12
#26666
1A
#28925
1=
#29221
1;
#29222
18
#29223
10
#29926
06
0&
#30000
0!
1)
#30836
01
#31009
02
#32198
13
1%
#35000
1!
0)
#35730
11
#35917
12
#40000
0!
1)
#40836
01
#41009
02
#45000
1!
0)
#45730
11
#45917
12
#50000
0"
0#
0$
0!
1)
#50756
0>
#50776
07
#50826
09
#50836
01
#50999
0:
#51009
02
#51798
0A
#54272
0=
#54599
0;
#54601
08
#54602
00
#55000
1!
0)
#55024
16
1&
#55730
11
#55917
12
#57512
03
0%
#60000
0!
1)
#60836
01
#61009
02
#65000
1!
0)
#65730
11
#65917
12
#70000
0!
1)
#70836
01
#71009
02
#75000
1"
1#
1$
1!
0)
#75650
1>
#75670
17
#75720
19
#75730
11
#75907
1:
#75917
12
#76666
1A
#78925
1=
#79221
1;
#79222
18
#79223
10
#79926
06
0&
#80000
0!
1)
#80836
01
#81009
02
#82198
13
1%
#85000
1!
0)
#85730
11
#85917
12
#90000
0!
1)
#90836
01
#91009
02
#95000
1!
0)
#95730
11
#95917
12
#100000
0"
0#
0$
0!
1)
#100756
0>
#100776
07
#100826
09
#100836
01
#100999
0:
#101009
02
#101798
0A
#104272
0=
#104599
0;
#104601
08
#104602
00
#105000
1!
0)
#105024
16
1&
#105730
11
#105917
12
#107512
03
0%
#110000
0!
1)
#110836
01
#111009
02
#115000
1!
0)
#115730
11
#115917
12
#120000
0!
1)
#120836
01
#121009
02
#125000
1"
1#
1$
1!
0)
#125650
1>
#125670
17
#125720
19
#125730
11
#125907
1:
#125917
12
#126666
1A
#128925
1=
#129221
1;
#129222
18
#129223
10
#129926
06
0&
#130000
0!
1)
#130836
01
#131009
02
#132198
13
1%
#135000
1!
0)
#135730
11
#135917
12
#140000
0!
1)
#140836
01
#141009
02
#145000
1!
0)
#145730
11
#145917
12
#150000
0"
0#
0$
0!
1)
#150756
0>
#150776
07
#150826
09
#150836
01
#150999
0:
#151009
02
#151798
0A
#154272
0=
#154599
0;
#154601
08
#154602
00
#155000
1!
0)
#155024
16
1&
#155730
11
#155917
12
#157512
03
0%
#160000
0!
1)
#160836
01
#161009
02
#165000
1!
0)
#165730
11
#165917
12
#170000
0!
1)
#170836
01
#171009
02
#175000
1"
1#
1$
1!
0)
#175650
1>
#175670
17
#175720
19
#175730
11
#175907
1:
#175917
12
#176666
1A
#178925
1=
#179221
1;
#179222
18
#179223
10
#179926
06
0&
#180000
0!
1)
#180836
01
#181009
02
#182198
13
1%
#185000
1!
0)
#185730
11
#185917
12
#190000
0!
1)
#190836
01
#191009
02
#195000
1!
0)
#195730
11
#195917
12
#200000
0"
0#
0$
0!
1)
#200756
0>
#200776
07
#200826
09
#200836
01
#200999
0:
#201009
02
#201798
0A
#204272
0=
#204599
0;
#204601
08
#204602
00
#205000
1!
0)
#205024
16
1&
#205730
11
#205917
12
#207512
03
0%
#210000
0!
1)
#210836
01
#211009
02
#215000
1!
0)
#215730
11
#215917
12
#220000
0!
1)
#220836
01
#221009
02
#225000
1"
1#
1$
1!
0)
#225650
1>
#225670
17
#225720
19
#225730
11
#225907
1:
#225917
12
#226666
1A
#228925
1=
#229221
1;
#229222
18
#229223
10
#229926
06
0&
#230000
0!
1)
#230836
01
#231009
02
#232198
13
1%
#235000
1!
0)
#235730
11
#235917
12
#240000
0!
1)
#240836
01
#241009
02
#245000
1!
0)
#245730
11
#245917
12
#250000
0"
0#
0$
0!
1)
#250756
0>
#250776
07
#250826
09
#250836
01
#250999
0:
#251009
02
#251798
0A
#254272
0=
#254599
0;
#254601
08
#254602
00
#255000
1!
0)
#255024
16
1&
#255730
11
#255917
12
#257512
03
0%
#260000
0!
1)
#260836
01
#261009
02
#265000
1!
0)
#265730
11
#265917
12
#270000
0!
1)
#270836
01
#271009
02
#275000
1"
1#
1$
1!
0)
#275650
1>
#275670
17
#275720
19
#275730
11
#275907
1:
#275917
12
#276666
1A
#278925
1=
#279221
1;
#279222
18
#279223
10
#279926
06
0&
#280000
0!
1)
#280836
01
#281009
02
#282198
13
1%
#285000
1!
0)
#285730
11
#285917
12
#290000
0!
1)
#290836
01
#291009
02
#295000
1!
0)
#295730
11
#295917
12
#300000
0"
0#
0$
0!
1)
#300756
0>
#300776
07
#300826
09
#300836
01
#300999
0:
#301009
02
#301798
0A
#304272
0=
#304599
0;
#304601
08
#304602
00
#305000
1!
0)
#305024
16
1&
#305730
11
#305917
12
#307512
03
0%
#310000
0!
1)
#310836
01
#311009
02
#315000
1!
0)
#315730
11
#315917
12
#320000
0!
1)
#320836
01
#321009
02
#325000
1"
1#
1$
1!
0)
#325650
1>
#325670
17
#325720
19
#325730
11
#325907
1:
#325917
12
#326666
1A
#328925
1=
#329221
1;
#329222
18
#329223
10
#329926
06
0&
#330000
0!
1)
#330836
01
#331009
02
#332198
13
1%
#335000
1!
0)
#335730
11
#335917
12
#340000
0!
1)
#340836
01
#341009
02
#345000
1!
0)
#345730
11
#345917
12
#350000
0"
0#
0$
0!
1)
#350756
0>
#350776
07
#350826
09
#350836
01
#350999
0:
#351009
02
#351798
0A
#354272
0=
#354599
0;
#354601
08
#354602
00
#355000
1!
0)
#355024
16
1&
#355730
11
#355917
12
#357512
03
0%
#360000
0!
1)
#360836
01
#361009
02
#365000
1!
0)
#365730
11
#365917
12
#370000
0!
1)
#370836
01
#371009
02
#375000
1"
1#
1$
1!
0)
#375650
1>
#375670
17
#375720
19
#375730
11
#375907
1:
#375917
12
#376666
1A
#378925
1=
#379221
1;
#379222
18
#379223
10
#379926
06
0&
#380000
0!
1)
#380836
01
#381009
02
#382198
13
1%
#385000
1!
0)
#385730
11
#385917
12
#390000
0!
1)
#390836
01
#391009
02
#395000
1!
0)
#395730
11
#395917
12
#400000
0"
0#
0$
0!
1)
#400756
0>
#400776
07
#400826
09
#400836
01
#400999
0:
#401009
02
#401798
0A
#404272
0=
#404599
0;
#404601
08
#404602
00
#405000
1!
0)
#405024
16
1&
#405730
11
#405917
12
#407512
03
0%
#410000
0!
1)
#410836
01
#411009
02
#415000
1!
0)
#415730
11
#415917
12
#420000
0!
1)
#420836
01
#421009
02
#425000
1"
1#
1$
1!
0)
#425650
1>
#425670
17
#425720
19
#425730
11
#425907
1:
#425917
12
#426666
1A
#428925
1=
#429221
1;
#429222
18
#429223
10
#429926
06
0&
#430000
0!
1)
#430836
01
#431009
02
#432198
13
1%
#435000
1!
0)
#435730
11
#435917
12
#440000
0!
1)
#440836
01
#441009
02
#445000
1!
0)
#445730
11
#445917
12
#450000
0"
0#
0$
0!
1)
#450756
0>
#450776
07
#450826
09
#450836
01
#450999
0:
#451009
02
#451798
0A
#454272
0=
#454599
0;
#454601
08
#454602
00
#455000
1!
0)
#455024
16
1&
#455730
11
#455917
12
#457512
03
0%
#460000
0!
1)
#460836
01
#461009
02
#465000
1!
0)
#465730
11
#465917
12
#470000
0!
1)
#470836
01
#471009
02
#475000
1"
1#
1$
1!
0)
#475650
1>
#475670
17
#475720
19
#475730
11
#475907
1:
#475917
12
#476666
1A
#478925
1=
#479221
1;
#479222
18
#479223
10
#479926
06
0&
#480000
0!
1)
#480836
01
#481009
02
#482198
13
1%
#485000
1!
0)
#485730
11
#485917
12
#490000
0!
1)
#490836
01
#491009
02
#495000
1!
0)
#495730
11
#495917
12
#500000
0"
0#
0$
0!
1)
#500756
0>
#500776
07
#500826
09
#500836
01
#500999
0:
#501009
02
#501798
0A
#504272
0=
#504599
0;
#504601
08
#504602
00
#505000
1!
0)
#505024
16
1&
#505730
11
#505917
12
#507512
03
0%
#510000
0!
1)
#510836
01
#511009
02
#515000
1!
0)
#515730
11
#515917
12
#520000
0!
1)
#520836
01
#521009
02
#525000
1"
1#
1$
1!
0)
#525650
1>
#525670
17
#525720
19
#525730
11
#525907
1:
#525917
12
#526666
1A
#528925
1=
#529221
1;
#529222
18
#529223
10
#529926
06
0&
#530000
0!
1)
#530836
01
#531009
02
#532198
13
1%
#535000
1!
0)
#535730
11
#535917
12
#540000
0!
1)
#540836
01
#541009
02
#545000
1!
0)
#545730
11
#545917
12
#550000
0"
0#
0$
0!
1)
#550756
0>
#550776
07
#550826
09
#550836
01
#550999
0:
#551009
02
#551798
0A
#554272
0=
#554599
0;
#554601
08
#554602
00
#555000
1!
0)
#555024
16
1&
#555730
11
#555917
12
#557512
03
0%
#560000
0!
1)
#560836
01
#561009
02
#565000
1!
0)
#565730
11
#565917
12
#570000
0!
1)
#570836
01
#571009
02
#575000
1"
1#
1$
1!
0)
#575650
1>
#575670
17
#575720
19
#575730
11
#575907
1:
#575917
12
#576666
1A
#578925
1=
#579221
1;
#579222
18
#579223
10
#579926
06
0&
#580000
0!
1)
#580836
01
#581009
02
#582198
13
1%
#585000
1!
0)
#585730
11
#585917
12
#590000
0!
1)
#590836
01
#591009
02
#595000
1!
0)
#595730
11
#595917
12
#600000
0"
0#
0$
0!
1)
#600756
0>
#600776
07
#600826
09
#600836
01
#600999
0:
#601009
02
#601798
0A
#604272
0=
#604599
0;
#604601
08
#604602
00
#605000
1!
0)
#605024
16
1&
#605730
11
#605917
12
#607512
03
0%
#610000
0!
1)
#610836
01
#611009
02
#615000
1!
0)
#615730
11
#615917
12
#620000
0!
1)
#620836
01
#621009
02
#625000
1"
1#
1$
1!
0)
#625650
1>
#625670
17
#625720
19
#625730
11
#625907
1:
#625917
12
#626666
1A
#628925
1=
#629221
1;
#629222
18
#629223
10
#629926
06
0&
#630000
0!
1)
#630836
01
#631009
02
#632198
13
1%
#635000
1!
0)
#635730
11
#635917
12
#640000
0!
1)
#640836
01
#641009
02
#645000
1!
0)
#645730
11
#645917
12
#650000
0"
0#
0$
0!
1)
#650756
0>
#650776
07
#650826
09
#650836
01
#650999
0:
#651009
02
#651798
0A
#654272
0=
#654599
0;
#654601
08
#654602
00
#655000
1!
0)
#655024
16
1&
#655730
11
#655917
12
#657512
03
0%
#660000
0!
1)
#660836
01
#661009
02
#665000
1!
0)
#665730
11
#665917
12
#670000
0!
1)
#670836
01
#671009
02
#675000
1"
1#
1$
1!
0)
#675650
1>
#675670
17
#675720
19
#675730
11
#675907
1:
#675917
12
#676666
1A
#678925
1=
#679221
1;
#679222
18
#679223
10
#679926
06
0&
#680000
0!
1)
#680836
01
#681009
02
#682198
13
1%
#685000
1!
0)
#685730
11
#685917
12
#690000
0!
1)
#690836
01
#691009
02
#695000
1!
0)
#695730
11
#695917
12
#700000
0"
0#
0$
0!
1)
#700756
0>
#700776
07
#700826
09
#700836
01
#700999
0:
#701009
02
#701798
0A
#704272
0=
#704599
0;
#704601
08
#704602
00
#705000
1!
0)
#705024
16
1&
#705730
11
#705917
12
#707512
03
0%
#710000
0!
1)
#710836
01
#711009
02
#715000
1!
0)
#715730
11
#715917
12
#720000
0!
1)
#720836
01
#721009
02
#725000
1"
1#
1$
1!
0)
#725650
1>
#725670
17
#725720
19
#725730
11
#725907
1:
#725917
12
#726666
1A
#728925
1=
#729221
1;
#729222
18
#729223
10
#729926
06
0&
#730000
0!
1)
#730836
01
#731009
02
#732198
13
1%
#735000
1!
0)
#735730
11
#735917
12
#740000
0!
1)
#740836
01
#741009
02
#745000
1!
0)
#745730
11
#745917
12
#750000
0"
0#
0$
0!
1)
#750756
0>
#750776
07
#750826
09
#750836
01
#750999
0:
#751009
02
#751798
0A
#754272
0=
#754599
0;
#754601
08
#754602
00
#755000
1!
0)
#755024
16
1&
#755730
11
#755917
12
#757512
03
0%
#760000
0!
1)
#760836
01
#761009
02
#765000
1!
0)
#765730
11
#765917
12
#770000
0!
1)
#770836
01
#771009
02
#775000
1"
1#
1$
1!
0)
#775650
1>
#775670
17
#775720
19
#775730
11
#775907
1:
#775917
12
#776666
1A
#778925
1=
#779221
1;
#779222
18
#779223
10
#779926
06
0&
#780000
0!
1)
#780836
01
#781009
02
#782198
13
1%
#785000
1!
0)
#785730
11
#785917
12
#790000
0!
1)
#790836
01
#791009
02
#795000
1!
0)
#795730
11
#795917
12
#800000
0"
0#
0$
0!
1)
#800756
0>
#800776
07
#800826
09
#800836
01
#800999
0:
#801009
02
#801798
0A
#804272
0=
#804599
0;
#804601
08
#804602
00
#805000
1!
0)
#805024
16
1&
#805730
11
#805917
12
#807512
03
0%
#810000
0!
1)
#810836
01
#811009
02
#815000
1!
0)
#815730
11
#815917
12
#820000
0!
1)
#820836
01
#821009
02
#825000
1"
1#
1$
1!
0)
#825650
1>
#825670
17
#825720
19
#825730
11
#825907
1:
#825917
12
#826666
1A
#828925
1=
#829221
1;
#829222
18
#829223
10
#829926
06
0&
#830000
0!
1)
#830836
01
#831009
02
#832198
13
1%
#835000
1!
0)
#835730
11
#835917
12
#840000
0!
1)
#840836
01
#841009
02
#845000
1!
0)
#845730
11
#845917
12
#850000
0"
0#
0$
0!
1)
#850756
0>
#850776
07
#850826
09
#850836
01
#850999
0:
#851009
02
#851798
0A
#854272
0=
#854599
0;
#854601
08
#854602
00
#855000
1!
0)
#855024
16
1&
#855730
11
#855917
12
#857512
03
0%
#860000
0!
1)
#860836
01
#861009
02
#865000
1!
0)
#865730
11
#865917
12
#870000
0!
1)
#870836
01
#871009
02
#875000
1"
1#
1$
1!
0)
#875650
1>
#875670
17
#875720
19
#875730
11
#875907
1:
#875917
12
#876666
1A
#878925
1=
#879221
1;
#879222
18
#879223
10
#879926
06
0&
#880000
0!
1)
#880836
01
#881009
02
#882198
13
1%
#885000
1!
0)
#885730
11
#885917
12
#890000
0!
1)
#890836
01
#891009
02
#895000
1!
0)
#895730
11
#895917
12
#900000
0"
0#
0$
0!
1)
#900756
0>
#900776
07
#900826
09
#900836
01
#900999
0:
#901009
02
#901798
0A
#904272
0=
#904599
0;
#904601
08
#904602
00
#905000
1!
0)
#905024
16
1&
#905730
11
#905917
12
#907512
03
0%
#910000
0!
1)
#910836
01
#911009
02
#915000
1!
0)
#915730
11
#915917
12
#920000
0!
1)
#920836
01
#921009
02
#925000
1"
1#
1$
1!
0)
#925650
1>
#925670
17
#925720
19
#925730
11
#925907
1:
#925917
12
#926666
1A
#928925
1=
#929221
1;
#929222
18
#929223
10
#929926
06
0&
#930000
0!
1)
#930836
01
#931009
02
#932198
13
1%
#935000
1!
0)
#935730
11
#935917
12
#940000
0!
1)
#940836
01
#941009
02
#945000
1!
0)
#945730
11
#945917
12
#950000
0"
0#
0$
0!
1)
#950756
0>
#950776
07
#950826
09
#950836
01
#950999
0:
#951009
02
#951798
0A
#954272
0=
#954599
0;
#954601
08
#954602
00
#955000
1!
0)
#955024
16
1&
#955730
11
#955917
12
#957512
03
0%
#960000
0!
1)
#960836
01
#961009
02
#965000
1!
0)
#965730
11
#965917
12
#970000
0!
1)
#970836
01
#971009
02
#975000
1"
1#
1$
1!
0)
#975650
1>
#975670
17
#975720
19
#975730
11
#975907
1:
#975917
12
#976666
1A
#978925
1=
#979221
1;
#979222
18
#979223
10
#979926
06
0&
#980000
0!
1)
#980836
01
#981009
02
#982198
13
1%
#985000
1!
0)
#985730
11
#985917
12
#990000
0!
1)
#990836
01
#991009
02
#995000
1!
0)
#995730
11
