7주차/datapath/simulation/qsim/datapath.msim.vcd
$comment
	File created using the following command:
		vcd file datapath.msim.vcd -direction
$end
$date
	Mon Nov 21 13:47:41 2022
$end
$version
	ModelSim Version 10.1d
$end
$timescale
	1ps
$end
$scope module datapath_vlg_vec_tst $end
$var reg 1 ! clk $end
$var reg 1 " load $end
$var reg 1 # reset $end
$var reg 1 $ shift $end
$var reg 1 % subshift $end
$var reg 8 & word1 [7:0] $end
$var reg 4 ' word2 [3:0] $end
$var wire 1 ( lt $end
$var wire 1 ) quotient [3] $end
$var wire 1 * quotient [2] $end
$var wire 1 + quotient [1] $end
$var wire 1 , quotient [0] $end
$var wire 1 - remainder [3] $end
$var wire 1 . remainder [2] $end
$var wire 1 / remainder [1] $end
$var wire 1 0 remainder [0] $end
$var wire 1 1 sampler $end
$scope module i1 $end
$var wire 1 2 gnd $end
$var wire 1 3 vcc $end
$var wire 1 4 unknown $end
$var tri1 1 5 devclrn $end
$var tri1 1 6 devpor $end
$var tri1 1 7 devoe $end
$var wire 1 8 word1[2]~input_o $end
$var wire 1 9 word2[1]~input_o $end
$var wire 1 : word2[0]~input_o $end
$var wire 1 ; quotient[0]~output_o $end
$var wire 1 < quotient[1]~output_o $end
$var wire 1 = quotient[2]~output_o $end
$var wire 1 > quotient[3]~output_o $end
$var wire 1 ? remainder[0]~output_o $end
$var wire 1 @ remainder[1]~output_o $end
$var wire 1 A remainder[2]~output_o $end
$var wire 1 B remainder[3]~output_o $end
$var wire 1 C lt~output_o $end
$var wire 1 D clk~input_o $end
$var wire 1 E clk~inputclkctrl_outclk $end
$var wire 1 F load~input_o $end
$var wire 1 G word1[0]~input_o $end
$var wire 1 H subshift~input_o $end
$var wire 1 I dividend~4_combout $end
$var wire 1 J dividend~5_combout $end
$var wire 1 K reset~input_o $end
$var wire 1 L reset~inputclkctrl_outclk $end
$var wire 1 M word1[1]~input_o $end
$var wire 1 N dividend~6_combout $end
$var wire 1 O shift~input_o $end
$var wire 1 P dividend[1]~7_combout $end
$var wire 1 Q dividend~8_combout $end
$var wire 1 R word1[3]~input_o $end
$var wire 1 S dividend~9_combout $end
$var wire 1 T diff[0]~0_combout $end
$var wire 1 U dividend[4]~0_combout $end
$var wire 1 V word1[4]~input_o $end
$var wire 1 W diff[0]~1 $end
$var wire 1 X diff[1]~2_combout $end
$var wire 1 Y dividend[5]~1_combout $end
$var wire 1 Z word1[5]~input_o $end
$var wire 1 [ word2[2]~input_o $end
$var wire 1 \ diff[1]~3 $end
$var wire 1 ] diff[2]~4_combout $end
$var wire 1 ^ dividend[6]~2_combout $end
$var wire 1 _ word1[6]~input_o $end
$var wire 1 ` word2[3]~input_o $end
$var wire 1 a diff[2]~5 $end
$var wire 1 b diff[3]~6_combout $end
$var wire 1 c dividend[7]~3_combout $end
$var wire 1 d word1[7]~input_o $end
$var wire 1 e diff[3]~7 $end
$var wire 1 f Add0~0_combout $end
$var wire 1 g divisor [3] $end
$var wire 1 h divisor [2] $end
$var wire 1 i divisor [1] $end
$var wire 1 j divisor [0] $end
$var wire 1 k dividend [7] $end
$var wire 1 l dividend [6] $end
$var wire 1 m dividend [5] $end
$var wire 1 n dividend [4] $end
$var wire 1 o dividend [3] $end
$var wire 1 p dividend [2] $end
$var wire 1 q dividend [1] $end
$var wire 1 r dividend [0] $end
$upscope $end
$upscope $end
$enddefinitions $end
#0
$dumpvars
0!
0"
0#
0$
0%
b0 &
b0 '
x(
x,
x+
x*
x)
x0
x/
x.
x-
x1
02
13
x4
15
16
17
08
09
0:
x;
x<
x=
x>
x?
x@
xA
xB
xC
0D
xE
0F
0G
0H
xI
xJ
0K
xL
0M
xN
0O
xP
xQ
0R
xS
xT
xU
0V
xW
xX
xY
0Z
0[
x\
x]
x^
0_
0`
xa
xb
xc
0d
xe
xf
0j
0i
0h
0g
0r
0q
0p
0o
0n
0m
0l
0k
$end
#173
0L
0E
#836
0T
#872
1W
#938
0\
#1004
1a
#1070
0e
#1366
0U
#1384
0X
#1450
0]
#1516
0b
#1582
0f
#1913
0Y
#1958
0^
#2215
0c
#3349
0>
0)
#3497
0B
0-
#3510
0P
#3584
0S
#3614
0I
#3636
0N
#3694
0<
0+
#3701
0=
0*
#3751
0;
0,
#3780
0Q
#3815
0@
0/
#3891
0?
00
#4123
0J
#5000
1!
01
#5136
0C
0(
#5147
0A
0.
#5730
1D
#5917
1E
#10000
0!
11
#10836
0D
#11009
0E
#15000
1"
1!
01
#15660
1F
#15730
1D
#15917
1E
#18919
1P
#20000
0!
11
#20836
0D
#21009
0E
#25000
1#
1$
b10000000 &
b11000000 &
b11100000 &
b11110000 &
b11111000 &
b11111100 &
b11111110 &
b11111111 &
b1000 '
b1100 '
b1110 '
b1111 '
1!
01
#25650
1[
1O
#25660
1d
1R
1M
#25670
1_
18
1G
1`
#25680
1Z
1:
#25690
1V
19
#25720
1K
#25730
1D
#25907
1L
#25917
1E
#29003
1S
#29054
1N
#29166
1Q
#29243
1J
#30000
0"
0!
11
#30766
0F
#30836
0D
#31009
0E
#34567
0N
#34576
0S
#34609
0Q
#34729
0J
#35000
1!
01
#35730
1D
#35917
1E
#40000
0!
11
#40836
0D
#41009
0E
#45000
1"
1!
01
#45660
1F
#45730
1D
#45917
1E
#49210
1N
#49217
1S
#49218
1Q
#49401
1J
#50000
0#
0$
b1111111 &
b111111 &
b11111 &
b1111 &
b111 &
b11 &
b1 &
b0 &
b111 '
b11 '
b1 '
b0 '
0!
11
#50756
0[
0O
#50766
0d
0R
0M
#50776
0_
08
0G
0`
#50786
0Z
0:
#50796
0V
09
#50826
0K
#50836
0D
#50999
0L
#51009
0E
#54350
0S
#54402
0N
#54556
0Q
#54562
0J
#55000
1!
01
#55730
1D
#55917
1E
#60000
0"
0!
11
#60766
0F
#60836
0D
#61009
0E
#64276
0P
#65000
1!
01
#65730
1D
#65917
1E
#70000
0!
11
#70836
0D
#71009
0E
#75000
1#
1$
b10000000 &
b11000000 &
b11100000 &
b11110000 &
b11111000 &
b11111100 &
b11111110 &
b11111111 &
b1000 '
b1100 '
b1110 '
b1111 '
1"
1!
01
#75650
1[
1O
#75660
1F
1d
1R
1M
#75670
1_
18
1G
1`
#75680
1Z
1:
#75690
1V
19
#75720
1K
#75730
1D
#75907
1L
#75917
1E
#79178
1P
#79210
1N
#79217
1S
#79218
1Q
#79401
1J
#80000
0!
11
#80836
0D
#81009
0E
#85000
1!
01
#85730
1D
#85917
1E
#90000
0"
0!
11
#90766
0F
#90836
0D
#91009
0E
#94567
0N
#94576
0S
#94609
0Q
#94729
0J
#95000
1!
01
#95730
1D
#95917
1E
#100000
0#
0$
b1111111 &
b111111 &
b11111 &
b1111 &
b111 &
b11 &
b1 &
b0 &
b111 '
b11 '
b1 '
b0 '
0!
11
#100756
0[
0O
#100766
0d
0R
0M
#100776
0_
08
0G
0`
#100786
0Z
0:
#100796
0V
09
#100826
0K
#100836
0D
#100999
0L
#101009
0E
#104551
0P
#105000
1"
1!
01
#105660
1F
#105730
1D
#105917
1E
#108919
1P
#110000
0!
11
#110836
0D
#111009
0E
#115000
1!
01
#115730
1D
#115917
1E
#120000
0"
0!
11
#120766
0F
#120836
0D
#121009
0E
#124276
0P
#125000
1#
1$
b10000000 &
b11000000 &
b11100000 &
b11110000 &
b11111000 &
b11111100 &
b11111110 &
b11111111 &
b1000 '
b1100 '
b1110 '
b1111 '
1!
01
#125650
1[
1O
#125660
1d
1R
1M
#125670
1_
18
1G
1`
#125680
1Z
1:
#125690
1V
19
#125720
1K
#125730
1D
#125907
1L
#125917
1E
#129178
1P
#130000
0!
11
#130836
0D
#131009
0E
#135000
1"
1!
01
#135660
1F
#135730
1D
#135917
1E
#139210
1N
#139217
1S
#139218
1Q
#139401
1J
#140000
0!
11
#140836
0D
#141009
0E
#145000
1!
01
#145730
1D
#145917
1E
#150000
0#
0$
b1111111 &
b111111 &
b11111 &
b1111 &
b111 &
b11 &
b1 &
b0 &
b111 '
b11 '
b1 '
b0 '
0"
0!
11
#150756
0[
0O
#150766
0F
0d
0R
0M
#150776
0_
08
0G
0`
#150786
0Z
0:
#150796
0V
09
#150826
0K
#150836
0D
#150999
0L
#151009
0E
#154276
0P
#154350
0S
#154402
0N
#154556
0Q
#154562
0J
#155000
1!
01
#155730
1D
#155917
1E
#160000
0!
11
#160836
0D
#161009
0E
#165000
1"
1!
01
#165660
1F
#165730
1D
#165917
1E
#168919
1P
#170000
0!
11
#170836
0D
#171009
0E
#175000
1#
1$
b10000000 &
b11000000 &
b11100000 &
b11110000 &
b11111000 &
b11111100 &
b11111110 &
b11111111 &
b1000 '
b1100 '
b1110 '
b1111 '
1!
01
#175650
1[
1O
#175660
1d
1R
1M
#175670
1_
18
1G
1`
#175680
1Z
1:
#175690
1V
19
#175720
1K
#175730
1D
#175907
1L
#175917
1E
#179003
1S
#179054
1N
#179166
1Q
#179243
1J
#180000
0"
0!
11
#180766
0F
#180836
0D
#181009
0E
#184567
0N
#184576
0S
#184609
0Q
#184729
0J
#185000
1!
01
#185730
1D
#185917
1E
#190000
0!
11
#190836
0D
#191009
0E
#195000
1"
1!
01
#195660
1F
#195730
1D
#195917
1E
#199210
1N
#199217
1S
#199218
1Q
#199401
1J
#200000
0#
0$
b1111111 &
b111111 &
b11111 &
b1111 &
b111 &
b11 &
b1 &
b0 &
b111 '
b11 '
b1 '
b0 '
0!
11
#200756
0[
0O
#200766
0d
0R
0M
#200776
0_
08
0G
0`
#200786
0Z
0:
#200796
0V
09
#200826
0K
#200836
0D
#200999
0L
#201009
0E
#204350
0S
#204402
0N
#204556
0Q
#204562
0J
#205000
1!
01
#205730
1D
#205917
1E
#210000
0"
0!
11
#210766
0F
#210836
0D
#211009
0E
#214276
0P
#215000
1!
01
#215730
1D
#215917
1E
#220000
0!
11
#220836
0D
#221009
0E
#225000
1#
1$
b10000000 &
b11000000 &
b11100000 &
b11110000 &
b11111000 &
b11111100 &
b11111110 &
b11111111 &
b1000 '
b1100 '
b1110 '
b1111 '
1"
1!
01
#225650
1[
1O
#225660
1F
1d
1R
1M
#225670
1_
18
1G
1`
#225680
1Z
1:
#225690
1V
19
#225720
1K
#225730
1D
#225907
1L
#225917
1E
#229178
1P
#229210
1N
#229217
1S
#229218
1Q
#229401
1J
#230000
0!
11
#230836
0D
#231009
0E
#235000
1!
01
#235730
1D
#235917
1E
#240000
0"
0!
11
#240766
0F
#240836
0D
#241009
0E
#244567
0N
#244576
0S
#244609
0Q
#244729
0J
#245000
1!
01
#245730
1D
#245917
1E
#250000
0#
0$
b1111111 &
b111111 &
b11111 &
b1111 &
b111 &
b11 &
b1 &
b0 &
b111 '
b11 '
b1 '
b0 '
0!
11
#250756
0[
0O
#250766
0d
0R
0M
#250776
0_
08
0G
0`
#250786
0Z
0:
#250796
0V
09
#250826
0K
#250836
0D
#250999
0L
#251009
0E
#254551
0P
#255000
1"
1!
01
#255660
1F
#255730
1D
#255917
1E
#258919
1P
#260000
0!
11
#260836
0D
#261009
0E
#265000
1!
01
#265730
1D
#265917
1E
#270000
0"
0!
11
#270766
0F
#270836
0D
#271009
0E
#274276
0P
#275000
1#
1$
b10000000 &
b11000000 &
b11100000 &
b11110000 &
b11111000 &
b11111100 &
b11111110 &
b11111111 &
b1000 '
b1100 '
b1110 '
b1111 '
1!
01
#275650
1[
1O
#275660
1d
1R
1M
#275670
1_
18
1G
1`
#275680
1Z
1:
#275690
1V
19
#275720
1K
#275730
1D
#275907
1L
#275917
1E
#279178
1P
#280000
0!
11
#280836
0D
#281009
0E
#285000
1"
1!
01
#285660
1F
#285730
1D
#285917
1E
#289210
1N
#289217
1S
#289218
1Q
#289401
1J
#290000
0!
11
#290836
0D
#291009
0E
#295000
1!
01
#295730
1D
#295917
1E
#300000
0#
0$
b1111111 &
b111111 &
b11111 &
b1111 &
b111 &
b11 &
b1 &
b0 &
b111 '
b11 '
b1 '
b0 '
0"
0!
11
#300756
0[
0O
#300766
0F
0d
0R
0M
#300776
0_
08
0G
0`
#300786
0Z
0:
#300796
0V
09
#300826
0K
#300836
0D
#300999
0L
#301009
0E
#304276
0P
#304350
0S
#304402
0N
#304556
0Q
#304562
0J
#305000
1!
01
#305730
1D
#305917
1E
#310000
0!
11
#310836
0D
#311009
0E
#315000
1"
1!
01
#315660
1F
#315730
1D
#315917
1E
#318919
1P
#320000
0!
11
#320836
0D
#321009
0E
#325000
1#
1$
b10000000 &
b11000000 &
b11100000 &
b11110000 &
b11111000 &
b11111100 &
b11111110 &
b11111111 &
b1000 '
b1100 '
b1110 '
b1111 '
1!
01
#325650
1[
1O
#325660
1d
1R
1M
#325670
1_
18
1G
1`
#325680
1Z
1:
#325690
1V
19
#325720
1K
#325730
1D
#325907
1L
#325917
1E
#329003
1S
#329054
1N
#329166
1Q
#329243
1J
#330000
0"
0!
11
#330766
0F
#330836
0D
#331009
0E
#334567
0N
#334576
0S
#334609
0Q
#334729
0J
#335000
1!
01
#335730
1D
#335917
1E
#340000
0!
11
#340836
0D
#341009
0E
#345000
1"
1!
01
#345660
1F
#345730
1D
#345917
1E
#349210
1N
#349217
1S
#349218
1Q
#349401
1J
#350000
0#
0$
b1111111 &
b111111 &
b11111 &
b1111 &
b111 &
b11 &
b1 &
b0 &
b111 '
b11 '
b1 '
b0 '
0!
11
#350756
0[
0O
#350766
0d
0R
0M
#350776
0_
08
0G
0`
#350786
0Z
0:
#350796
0V
09
#350826
0K
#350836
0D
#350999
0L
#351009
0E
#354350
0S
#354402
0N
#354556
0Q
#354562
0J
#355000
1!
01
#355730
1D
#355917
1E
#360000
0"
0!
11
#360766
0F
#360836
0D
#361009
0E
#364276
0P
#365000
1!
01
#365730
1D
#365917
1E
#370000
0!
11
#370836
0D
#371009
0E
#375000
1#
1$
b10000000 &
b11000000 &
b11100000 &
b11110000 &
b11111000 &
b11111100 &
b11111110 &
b11111111 &
b1000 '
b1100 '
b1110 '
b1111 '
1"
1!
01
#375650
1[
1O
#375660
1F
1d
1R
1M
#375670
1_
18
1G
1`
#375680
1Z
1:
#375690
1V
19
#375720
1K
#375730
1D
#375907
1L
#375917
1E
#379178
1P
#379210
1N
#379217
1S
#379218
1Q
#379401
1J
#380000
0!
11
#380836
0D
#381009
0E
#385000
1!
01
#385730
1D
#385917
1E
#390000
0"
0!
11
#390766
0F
#390836
0D
#391009
0E
#394567
0N
#394576
0S
#394609
0Q
#394729
0J
#395000
1!
01
#395730
1D
#395917
1E
#400000
0#
0$
b1111111 &
b111111 &
b11111 &
b1111 &
b111 &
b11 &
b1 &
b0 &
b111 '
b11 '
b1 '
b0 '
0!
11
#400756
0[
0O
#400766
0d
0R
0M
#400776
0_
08
0G
0`
#400786
0Z
0:
#400796
0V
09
#400826
0K
#400836
0D
#400999
0L
#401009
0E
#404551
0P
#405000
1"
1!
01
#405660
1F
#405730
1D
#405917
1E
#408919
1P
#410000
0!
11
#410836
0D
#411009
0E
#415000
1!
01
#415730
1D
#415917
1E
#420000
0"
0!
11
#420766
0F
#420836
0D
#421009
0E
#424276
0P
#425000
1#
1$
b10000000 &
b11000000 &
b11100000 &
b11110000 &
b11111000 &
b11111100 &
b11111110 &
b11111111 &
b1000 '
b1100 '
b1110 '
b1111 '
1!
01
#425650
1[
1O
#425660
1d
1R
1M
#425670
1_
18
1G
1`
#425680
1Z
1:
#425690
1V
19
#425720
1K
#425730
1D
#425907
1L
#425917
1E
#429178
1P
#430000
0!
11
#430836
0D
#431009
0E
#435000
1"
1!
01
#435660
1F
#435730
1D
#435917
1E
#439210
1N
#439217
1S
#439218
1Q
#439401
1J
#440000
0!
11
#440836
0D
#441009
0E
#445000
1!
01
#445730
1D
#445917
1E
#450000
0#
0$
b1111111 &
b111111 &
b11111 &
b1111 &
b111 &
b11 &
b1 &
b0 &
b111 '
b11 '
b1 '
b0 '
0"
0!
11
#450756
0[
0O
#450766
0F
0d
0R
0M
#450776
0_
08
0G
0`
#450786
0Z
0:
#450796
0V
09
#450826
0K
#450836
0D
#450999
0L
#451009
0E
#454276
0P
#454350
0S
#454402
0N
#454556
0Q
#454562
0J
#455000
1!
01
#455730
1D
#455917
1E
#460000
0!
11
#460836
0D
#461009
0E
#465000
1"
1!
01
#465660
1F
#465730
1D
#465917
1E
#468919
1P
#470000
0!
11
#470836
0D
#471009
0E
#475000
1#
1$
b10000000 &
b11000000 &
b11100000 &
b11110000 &
b11111000 &
b11111100 &
b11111110 &
b11111111 &
b1000 '
b1100 '
b1110 '
b1111 '
1!
01
#475650
1[
1O
#475660
1d
1R
1M
#475670
1_
18
1G
1`
#475680
1Z
1:
#475690
1V
19
#475720
1K
#475730
1D
#475907
1L
#475917
1E
#479003
1S
#479054
1N
#479166
1Q
#479243
1J
#480000
0"
0!
11
#480766
0F
#480836
0D
#481009
0E
#484567
0N
#484576
0S
#484609
0Q
#484729
0J
#485000
1!
01
#485730
1D
#485917
1E
#490000
0!
11
#490836
0D
#491009
0E
#495000
1"
1!
01
#495660
1F
#495730
1D
#495917
1E
#499210
1N
#499217
1S
#499218
1Q
#499401
1J
#500000
0#
0$
b1111111 &
b111111 &
b11111 &
b1111 &
b111 &
b11 &
b1 &
b0 &
b111 '
b11 '
b1 '
b0 '
0!
11
#500756
0[
0O
#500766
0d
0R
0M
#500776
0_
08
0G
0`
#500786
0Z
0:
#500796
0V
09
#500826
0K
#500836
0D
#500999
0L
#501009
0E
#504350
0S
#504402
0N
#504556
0Q
#504562
0J
#505000
1!
01
#505730
1D
#505917
1E
#510000
0"
0!
11
#510766
0F
#510836
0D
#511009
0E
#514276
0P
#515000
1!
01
#515730
1D
#515917
1E
#520000
0!
11
#520836
0D
#521009
0E
#525000
1#
1$
b10000000 &
b11000000 &
b11100000 &
b11110000 &
b11111000 &
b11111100 &
b11111110 &
b11111111 &
b1000 '
b1100 '
b1110 '
b1111 '
1"
1!
01
#525650
1[
1O
#525660
1F
1d
1R
1M
#525670
1_
18
1G
1`
#525680
1Z
1:
#525690
1V
19
#525720
1K
#525730
1D
#525907
1L
#525917
1E
#529178
1P
#529210
1N
#529217
1S
#529218
1Q
#529401
1J
#530000
0!
11
#530836
0D
#531009
0E
#535000
1!
01
#535730
1D
#535917
1E
#540000
0"
0!
11
#540766
0F
#540836
0D
#541009
0E
#544567
0N
#544576
0S
#544609
0Q
#544729
0J
#545000
1!
01
#545730
1D
#545917
1E
#550000
0#
0$
b1111111 &
b111111 &
b11111 &
b1111 &
b111 &
b11 &
b1 &
b0 &
b111 '
b11 '
b1 '
b0 '
0!
11
#550756
0[
0O
#550766
0d
0R
0M
#550776
0_
08
0G
0`
#550786
0Z
0:
#550796
0V
09
#550826
0K
#550836
0D
#550999
0L
#551009
0E
#554551
0P
#555000
1"
1!
01
#555660
1F
#555730
1D
#555917
1E
#558919
1P
#560000
0!
11
#560836
0D
#561009
0E
#565000
1!
01
#565730
1D
#565917
1E
#570000
0"
0!
11
#570766
0F
#570836
0D
#571009
0E
#574276
0P
#575000
1#
1$
b10000000 &
b11000000 &
b11100000 &
b11110000 &
b11111000 &
b11111100 &
b11111110 &
b11111111 &
b1000 '
b1100 '
b1110 '
b1111 '
1!
01
#575650
1[
1O
#575660
1d
1R
1M
#575670
1_
18
1G
1`
#575680
1Z
1:
#575690
1V
19
#575720
1K
#575730
1D
#575907
1L
#575917
1E
#579178
1P
#580000
0!
11
#580836
0D
#581009
0E
#585000
1"
1!
01
#585660
1F
#585730
1D
#585917
1E
#589210
1N
#589217
1S
#589218
1Q
#589401
1J
#590000
0!
11
#590836
0D
#591009
0E
#595000
1!
01
#595730
1D
#595917
1E
#600000
0#
0$
b1111111 &
b111111 &
b11111 &
b1111 &
b111 &
b11 &
b1 &
b0 &
b111 '
b11 '
b1 '
b0 '
0"
0!
11
#600756
0[
0O
#600766
0F
0d
0R
0M
#600776
0_
08
0G
0`
#600786
0Z
0:
#600796
0V
09
#600826
0K
#600836
0D
#600999
0L
#601009
0E
#604276
0P
#604350
0S
#604402
0N
#604556
0Q
#604562
0J
#605000
1!
01
#605730
1D
#605917
1E
#610000
0!
11
#610836
0D
#611009
0E
#615000
1"
1!
01
#615660
1F
#615730
1D
#615917
1E
#618919
1P
#620000
0!
11
#620836
0D
#621009
0E
#625000
1#
1$
b10000000 &
b11000000 &
b11100000 &
b11110000 &
b11111000 &
b11111100 &
b11111110 &
b11111111 &
b1000 '
b1100 '
b1110 '
b1111 '
1!
01
#625650
1[
1O
#625660
1d
1R
1M
#625670
1_
18
1G
1`
#625680
1Z
1:
#625690
1V
19
#625720
1K
#625730
1D
#625907
1L
#625917
1E
#629003
1S
#629054
1N
#629166
1Q
#629243
1J
#630000
0"
0!
11
#630766
0F
#630836
0D
#631009
0E
#634567
0N
#634576
0S
#634609
0Q
#634729
0J
#635000
1!
01
#635730
1D
#635917
1E
#640000
0!
11
#640836
0D
#641009
0E
#645000
1"
1!
01
#645660
1F
#645730
1D
#645917
1E
#649210
1N
#649217
1S
#649218
1Q
#649401
1J
#650000
0#
0$
b1111111 &
b111111 &
b11111 &
b1111 &
b111 &
b11 &
b1 &
b0 &
b111 '
b11 '
b1 '
b0 '
0!
11
#650756
0[
0O
#650766
0d
0R
0M
#650776
0_
08
0G
0`
#650786
0Z
0:
#650796
0V
09
#650826
0K
#650836
0D
#650999
0L
#651009
0E
#654350
0S
#654402
0N
#654556
0Q
#654562
0J
#655000
1!
01
#655730
1D
#655917
1E
#660000
0"
0!
11
#660766
0F
#660836
0D
#661009
0E
#664276
0P
#665000
1!
01
#665730
1D
#665917
1E
#670000
0!
11
#670836
0D
#671009
0E
#675000
1#
1$
b10000000 &
b11000000 &
b11100000 &
b11110000 &
b11111000 &
b11111100 &
b11111110 &
b11111111 &
b1000 '
b1100 '
b1110 '
b1111 '
1"
1!
01
#675650
1[
1O
#675660
1F
1d
1R
1M
#675670
1_
18
1G
1`
#675680
1Z
1:
#675690
1V
19
#675720
1K
#675730
1D
#675907
1L
#675917
1E
#679178
1P
#679210
1N
#679217
1S
#679218
1Q
#679401
1J
#680000
0!
11
#680836
0D
#681009
0E
#685000
1!
01
#685730
1D
#685917
1E
#690000
0"
0!
11
#690766
0F
#690836
0D
#691009
0E
#694567
0N
#694576
0S
#694609
0Q
#694729
0J
#695000
1!
01
#695730
1D
#695917
1E
#700000
0#
0$
b1111111 &
b111111 &
b11111 &
b1111 &
b111 &
b11 &
b1 &
b0 &
b111 '
b11 '
b1 '
b0 '
0!
11
#700756
0[
0O
#700766
0d
0R
0M
#700776
0_
08
0G
0`
#700786
0Z
0:
#700796
0V
09
#700826
0K
#700836
0D
#700999
0L
#701009
0E
#704551
0P
#705000
1"
1!
01
#705660
1F
#705730
1D
#705917
1E
#708919
1P
#710000
0!
11
#710836
0D
#711009
0E
#715000
1!
01
#715730
1D
#715917
1E
#720000
0"
0!
11
#720766
0F
#720836
0D
#721009
0E
#724276
0P
#725000
1#
1$
b10000000 &
b11000000 &
b11100000 &
b11110000 &
b11111000 &
b11111100 &
b11111110 &
b11111111 &
b1000 '
b1100 '
b1110 '
b1111 '
1!
01
#725650
1[
1O
#725660
1d
1R
1M
#725670
1_
18
1G
1`
#725680
1Z
1:
#725690
1V
19
#725720
1K
#725730
1D
#725907
1L
#725917
1E
#729178
1P
#730000
0!
11
#730836
0D
#731009
0E
#735000
1"
1!
01
#735660
1F
#735730
1D
#735917
1E
#739210
1N
#739217
1S
#739218
1Q
#739401
1J
#740000
0!
11
#740836
0D
#741009
0E
#745000
1!
01
#745730
1D
#745917
1E
#750000
0#
0$
b1111111 &
b111111 &
b11111 &
b1111 &
b111 &
b11 &
b1 &
b0 &
b111 '
b11 '
b1 '
b0 '
0"
0!
11
#750756
0[
0O
#750766
0F
0d
0R
0M
#750776
0_
08
0G
0`
#750786
0Z
0:
#750796
0V
09
#750826
0K
#750836
0D
#750999
0L
#751009
0E
#754276
0P
#754350
0S
#754402
0N
#754556
0Q
#754562
0J
#755000
1!
01
#755730
1D
#755917
1E
#760000
0!
11
#760836
0D
#761009
0E
#765000
1"
1!
01
#765660
1F
#765730
1D
#765917
1E
#768919
1P
#770000
0!
11
#770836
0D
#771009
0E
#775000
1#
1$
b10000000 &
b11000000 &
b11100000 &
b11110000 &
b11111000 &
b11111100 &
b11111110 &
b11111111 &
b1000 '
b1100 '
b1110 '
b1111 '
1!
01
#775650
1[
1O
#775660
1d
1R
1M
#775670
1_
18
1G
1`
#775680
1Z
1:
#775690
1V
19
#775720
1K
#775730
1D
#775907
1L
#775917
1E
#779003
1S
#779054
1N
#779166
1Q
#779243
1J
#780000
0"
0!
11
#780766
0F
#780836
0D
#781009
0E
#784567
0N
#784576
0S
#784609
0Q
#784729
0J
#785000
1!
01
#785730
1D
#785917
1E
#790000
0!
11
#790836
0D
#791009
0E
#795000
1"
1!
01
#795660
1F
#795730
1D
#795917
1E
#799210
1N
#799217
1S
#799218
1Q
#799401
1J
#800000
0#
0$
b1111111 &
b111111 &
b11111 &
b1111 &
b111 &
b11 &
b1 &
b0 &
b111 '
b11 '
b1 '
b0 '
0!
11
#800756
0[
0O
#800766
0d
0R
0M
#800776
0_
08
0G
0`
#800786
0Z
0:
#800796
0V
09
#800826
0K
#800836
0D
#800999
0L
#801009
0E
#804350
0S
#804402
0N
#804556
0Q
#804562
0J
#805000
1!
01
#805730
1D
#805917
1E
#810000
0"
0!
11
#810766
0F
#810836
0D
#811009
0E
#814276
0P
#815000
1!
01
#815730
1D
#815917
1E
#820000
0!
11
#820836
0D
#821009
0E
#825000
1#
1$
b10000000 &
b11000000 &
b11100000 &
b11110000 &
b11111000 &
b11111100 &
b11111110 &
b11111111 &
b1000 '
b1100 '
b1110 '
b1111 '
1"
1!
01
#825650
1[
1O
#825660
1F
1d
1R
1M
#825670
1_
18
1G
1`
#825680
1Z
1:
#825690
1V
19
#825720
1K
#825730
1D
#825907
1L
#825917
1E
#829178
1P
#829210
1N
#829217
1S
#829218
1Q
#829401
1J
#830000
0!
11
#830836
0D
#831009
0E
#835000
1!
01
#835730
1D
#835917
1E
#840000
0"
0!
11
#840766
0F
#840836
0D
#841009
0E
#844567
0N
#844576
0S
#844609
0Q
#844729
0J
#845000
1!
01
#845730
1D
#845917
1E
#850000
0#
0$
b1111111 &
b111111 &
b11111 &
b1111 &
b111 &
b11 &
b1 &
b0 &
b111 '
b11 '
b1 '
b0 '
0!
11
#850756
0[
0O
#850766
0d
0R
0M
#850776
0_
08
0G
0`
#850786
0Z
0:
#850796
0V
09
#850826
0K
#850836
0D
#850999
0L
#851009
0E
#854551
0P
#855000
1"
1!
01
#855660
1F
#855730
1D
#855917
1E
#858919
1P
#860000
0!
11
#860836
0D
#861009
0E
#865000
1!
01
#865730
1D
#865917
1E
#870000
0"
0!
11
#870766
0F
#870836
0D
#871009
0E
#874276
0P
#875000
1#
1$
b10000000 &
b11000000 &
b11100000 &
b11110000 &
b11111000 &
b11111100 &
b11111110 &
b11111111 &
b1000 '
b1100 '
b1110 '
b1111 '
1!
01
#875650
1[
1O
#875660
1d
1R
1M
#875670
1_
18
1G
1`
#875680
1Z
1:
#875690
1V
19
#875720
1K
#875730
1D
#875907
1L
#875917
1E
#879178
1P
#880000
0!
11
#880836
0D
#881009
0E
#885000
1"
1!
01
#885660
1F
#885730
1D
#885917
1E
#889210
1N
#889217
1S
#889218
1Q
#889401
1J
#890000
0!
11
#890836
0D
#891009
0E
#895000
1!
01
#895730
1D
#895917
1E
#900000
0#
0$
b1111111 &
b111111 &
b11111 &
b1111 &
b111 &
b11 &
b1 &
b0 &
b111 '
b11 '
b1 '
b0 '
0"
0!
11
#900756
0[
0O
#900766
0F
0d
0R
0M
#900776
0_
08
0G
0`
#900786
0Z
0:
#900796
0V
09
#900826
0K
#900836
0D
#900999
0L
#901009
0E
#904276
0P
#904350
0S
#904402
0N
#904556
0Q
#904562
0J
#905000
1!
01
#905730
1D
#905917
1E
#910000
0!
11
#910836
0D
#911009
0E
#915000
1"
1!
01
#915660
1F
#915730
1D
#915917
1E
#918919
1P
#920000
0!
11
#920836
0D
#921009
0E
#925000
1#
1$
b10000000 &
b11000000 &
b11100000 &
b11110000 &
b11111000 &
b11111100 &
b11111110 &
b11111111 &
b1000 '
b1100 '
b1110 '
b1111 '
1!
01
#925650
1[
1O
#925660
1d
1R
1M
#925670
1_
18
1G
1`
#925680
1Z
1:
#925690
1V
19
#925720
1K
#925730
1D
#925907
1L
#925917
1E
#929003
1S
#929054
1N
#929166
1Q
#929243
1J
#930000
0"
0!
11
#930766
0F
#930836
0D
#931009
0E
#934567
0N
#934576
0S
#934609
0Q
#934729
0J
#935000
1!
01
#935730
1D
#935917
1E
#940000
0!
11
#940836
0D
#941009
0E
#945000
1"
1!
01
#945660
1F
#945730
1D
#945917
1E
#949210
1N
#949217
1S
#949218
1Q
#949401
1J
#950000
0#
0$
b1111111 &
b111111 &
b11111 &
b1111 &
b111 &
b11 &
b1 &
b0 &
b111 '
b11 '
b1 '
b0 '
0!
11
#950756
0[
0O
#950766
0d
0R
0M
#950776
0_
08
0G
0`
#950786
0Z
0:
#950796
0V
09
#950826
0K
#950836
0D
#950999
0L
#951009
0E
#954350
0S
#954402
0N
#954556
0Q
#954562
0J
#955000
1!
01
#955730
1D
#955917
1E
#960000
0"
0!
11
#960766
0F
#960836
0D
#961009
0E
#964276
0P
#965000
1!
01
#965730
1D
#965917
1E
#970000
0!
11
#970836
0D
#971009
0E
#975000
1#
1$
b10000000 &
b11000000 &
b11100000 &
b11110000 &
b11111000 &
b11111100 &
b11111110 &
b11111111 &
b1000 '
b1100 '
b1110 '
b1111 '
1"
1!
01
#975650
1[
1O
#975660
1F
1d
1R
1M
#975670
1_
18
1G
1`
#975680
1Z
1:
#975690
1V
19
#975720
1K
#975730
1D
