8주차/div/simulation/qsim/div.msim.vcd
$comment
	File created using the following command:
		vcd file div.msim.vcd -direction
$end
$date
	Tue Nov 29 18:57:36 2022
$end
$version
	ModelSim Version 10.1d
$end
$timescale
	1ps
$end
$scope module div_vlg_vec_tst $end
$var reg 1 ! clk $end
$var reg 1 " reset $end
$var reg 1 # start $end
$var reg 8 $ word1 [7:0] $end
$var reg 4 % word2 [3:0] $end
$var wire 1 & quotient [3] $end
$var wire 1 ' quotient [2] $end
$var wire 1 ( quotient [1] $end
$var wire 1 ) quotient [0] $end
$var wire 1 * ready $end
$var wire 1 + remainder [3] $end
$var wire 1 , remainder [2] $end
$var wire 1 - remainder [1] $end
$var wire 1 . remainder [0] $end
$var wire 1 / sampler $end
$scope module i1 $end
$var wire 1 0 gnd $end
$var wire 1 1 vcc $end
$var wire 1 2 unknown $end
$var tri1 1 3 devclrn $end
$var tri1 1 4 devpor $end
$var tri1 1 5 devoe $end
$var wire 1 6 u1|diff[1]~2_combout $end
$var wire 1 7 u1|diff[3]~6_combout $end
$var wire 1 8 word2[3]~input_o $end
$var wire 1 9 word2[2]~input_o $end
$var wire 1 : word2[0]~input_o $end
$var wire 1 ; quotient[0]~output_o $end
$var wire 1 < quotient[1]~output_o $end
$var wire 1 = quotient[2]~output_o $end
$var wire 1 > quotient[3]~output_o $end
$var wire 1 ? remainder[0]~output_o $end
$var wire 1 @ remainder[1]~output_o $end
$var wire 1 A remainder[2]~output_o $end
$var wire 1 B remainder[3]~output_o $end
$var wire 1 C ready~output_o $end
$var wire 1 D clk~input_o $end
$var wire 1 E u2|count[1]~1_combout $end
$var wire 1 F reset~input_o $end
$var wire 1 G u2|count[0]~0_combout $end
$var wire 1 H u2|state~0_combout $end
$var wire 1 I u2|state~q $end
$var wire 1 J word1[2]~input_o $end
$var wire 1 K word1[1]~input_o $end
$var wire 1 L start~input_o $end
$var wire 1 M u1|dividend~6_combout $end
$var wire 1 N u1|dividend~7_combout $end
$var wire 1 O u1|dividend~8_combout $end
$var wire 1 P word1[3]~input_o $end
$var wire 1 Q u1|dividend~9_combout $end
$var wire 1 R u1|diff[0]~0_combout $end
$var wire 1 S u2|shift~combout $end
$var wire 1 T u1|dividend[4]~0_combout $end
$var wire 1 U word1[4]~input_o $end
$var wire 1 V u2|load~combout $end
$var wire 1 W u1|dividend[5]~1_combout $end
$var wire 1 X word1[5]~input_o $end
$var wire 1 Y word2[1]~input_o $end
$var wire 1 Z u1|diff[0]~1 $end
$var wire 1 [ u1|diff[1]~3 $end
$var wire 1 \ u1|diff[2]~4_combout $end
$var wire 1 ] u1|dividend[6]~2_combout $end
$var wire 1 ^ u1|dividend[6]~feeder_combout $end
$var wire 1 _ word1[6]~input_o $end
$var wire 1 ` u1|dividend[7]~3_combout $end
$var wire 1 a word1[7]~input_o $end
$var wire 1 b u1|diff[2]~5 $end
$var wire 1 c u1|diff[3]~7 $end
$var wire 1 d u1|lt~0_combout $end
$var wire 1 e word1[0]~input_o $end
$var wire 1 f u1|dividend~4_combout $end
$var wire 1 g u1|dividend~5_combout $end
$var wire 1 h u2|ready~combout $end
$var wire 1 i u1|dividend [7] $end
$var wire 1 j u1|dividend [6] $end
$var wire 1 k u1|dividend [5] $end
$var wire 1 l u1|dividend [4] $end
$var wire 1 m u1|dividend [3] $end
$var wire 1 n u1|dividend [2] $end
$var wire 1 o u1|dividend [1] $end
$var wire 1 p u1|dividend [0] $end
$var wire 1 q u2|count [1] $end
$var wire 1 r u2|count [0] $end
$var wire 1 s u1|divisor [3] $end
$var wire 1 t u1|divisor [2] $end
$var wire 1 u u1|divisor [1] $end
$var wire 1 v u1|divisor [0] $end
$upscope $end
$upscope $end
$enddefinitions $end
#0
$dumpvars
0!
1"
0#
b0 $
b0 %
0)
0(
0'
0&
0*
0.
0-
0,
0+
x/
00
11
x2
13
14
15
06
07
08
09
0:
0;
0<
0=
0>
0?
0@
0A
0B
0C
0D
0E
1F
0G
0H
0I
0J
0K
0L
0M
0N
0O
0P
0Q
0R
0S
0T
0U
0V
0W
0X
0Y
1Z
0[
0\
0]
0^
0_
0`
0a
1b
0c
0d
0e
0f
0g
1h
0p
0o
0n
0m
0l
0k
0j
0i
0r
0q
0v
0u
0t
0s
$end
#20000
1!
1D
0/
#30354
1#
1L
1/
1V
1N
1H
1G
1E
#30729
0"
b10000000 $
b10010000 $
b1000 %
b1010 %
b1011 %
0F
1:
1Y
18
1U
1a
0/
0h
1C
1*
#40000
0!
0D
1/
#60000
1!
1D
0/
1u
1I
1r
1q
1v
1s
1i
1l
1h
1g
0V
0G
0Z
1R
1c
17
1d
1B
1?
1+
1.
1[
16
1T
0d
1`
0g
1S
0C
0*
0b
1\
1W
1g
0S
0`
0T
07
1]
1`
1T
0`
1^
#69703
0#
b10000 $
b0 $
b11 %
b1 %
b0 %
0L
0:
0Y
08
0U
0a
1/
#80000
0!
0D
0/
#100000
1!
1D
1/
0r
1p
0i
1j
1k
1G
0E
1M
1d
17
1b
0\
1;
0B
1A
1@
1)
0+
1,
1-
0g
1S
1`
0c
07
0T
0d
1g
0]
0S
0^
0`
1T
#120000
0!
0D
0/
#140000
1!
1D
1/
1r
0q
0j
1o
0G
1c
17
1O
0A
1<
0,
1(
1d
1`
0g
1]
1S
1^
0`
0T
#160000
0!
0D
0/
#180000
1!
1D
1/
0r
0p
1j
0l
1n
0H
0M
1`
0c
07
0W
06
1Q
0;
1A
0?
1=
0)
1,
0.
1'
0d
1g
0]
0S
0^
0`
1T
#200000
0!
0D
0/
#220000
1!
1D
1/
0I
1p
0j
0k
1l
1m
0o
0h
0g
1f
0O
0N
1M
1c
17
0b
1\
16
1Z
0R
1;
0A
0@
1?
1>
0<
1)
0,
0-
1.
1&
0(
1g
1d
1`
07
1]
1W
0[
06
0T
1C
1*
0`
1^
1b
0\
0W
17
0]
1`
0^
#240000
0!
0D
0/
#260000
1!
1D
1/
#280000
0!
0D
0/
#300000
1!
1D
1/
#320000
0!
0D
0/
#340000
1!
1D
1/
#360000
0!
0D
0/
#380000
1!
1D
1/
#400000
0!
0D
0/
#420000
1!
1D
1/
#440000
0!
0D
0/
#460000
1!
1D
1/
#480000
0!
0D
0/
#500000
1!
1D
1/
#520000
0!
0D
0/
#540000
1!
1D
1/
#560000
0!
0D
0/
#580000
1!
1D
1/
#600000
0!
0D
0/
#620000
1!
1D
1/
#640000
0!
0D
0/
#660000
1!
1D
1/
#680000
0!
0D
0/
#700000
1!
1D
1/
#720000
0!
0D
0/
#740000
1!
1D
1/
#760000
0!
0D
0/
#780000
1!
1D
1/
#800000
0!
0D
0/
#820000
1!
1D
1/
#840000
0!
0D
0/
#860000
1!
1D
1/
#880000
0!
0D
0/
#900000
1!
1D
1/
#920000
0!
0D
0/
#940000
1!
1D
1/
#960000
0!
0D
0/
#980000
1!
1D
1/
