lcd_test/simulation/qsim/lcd_test.msim.vcd
$comment
	File created using the following command:
		vcd file lcd_test.msim.vcd -direction
$end
$date
	Mon Dec 05 09:46:45 2022
$end
$version
	ModelSim Version 10.1d
$end
$timescale
	1ps
$end
$scope module lcd_test_vlg_vec_tst $end
$var reg 1 ! clk $end
$var reg 1 " done $end
$var reg 1 # reset $end
$var wire 1 $ RS $end
$var wire 1 % data [7] $end
$var wire 1 & data [6] $end
$var wire 1 ' data [5] $end
$var wire 1 ( data [4] $end
$var wire 1 ) data [3] $end
$var wire 1 * data [2] $end
$var wire 1 + data [1] $end
$var wire 1 , data [0] $end
$var wire 1 - start $end
$var wire 1 . sampler $end
$scope module i1 $end
$var wire 1 / gnd $end
$var wire 1 0 vcc $end
$var wire 1 1 unknown $end
$var tri1 1 2 devclrn $end
$var tri1 1 3 devpor $end
$var tri1 1 4 devoe $end
$var wire 1 5 Add1~8_combout $end
$var wire 1 6 Add1~16_combout $end
$var wire 1 7 Add1~24_combout $end
$var wire 1 8 Add1~30_combout $end
$var wire 1 9 Equal0~1_combout $end
$var wire 1 : start~output_o $end
$var wire 1 ; RS~output_o $end
$var wire 1 < data[0]~output_o $end
$var wire 1 = data[1]~output_o $end
$var wire 1 > data[2]~output_o $end
$var wire 1 ? data[3]~output_o $end
$var wire 1 @ data[4]~output_o $end
$var wire 1 A data[5]~output_o $end
$var wire 1 B data[6]~output_o $end
$var wire 1 C data[7]~output_o $end
$var wire 1 D clk~input_o $end
$var wire 1 E clk~inputclkctrl_outclk $end
$var wire 1 F index[1]~6_combout $end
$var wire 1 G reset~input_o $end
$var wire 1 H reset~inputclkctrl_outclk $end
$var wire 1 I done~input_o $end
$var wire 1 J Add1~1 $end
$var wire 1 K Add1~2_combout $end
$var wire 1 L Selector3~0_combout $end
$var wire 1 M state.S3~q $end
$var wire 1 N Add1~0_combout $end
$var wire 1 O Add1~3 $end
$var wire 1 P Add1~4_combout $end
$var wire 1 Q Add1~5 $end
$var wire 1 R Add1~6_combout $end
$var wire 1 S Add1~7 $end
$var wire 1 T Add1~9 $end
$var wire 1 U Add1~10_combout $end
$var wire 1 V Add1~11 $end
$var wire 1 W Add1~12_combout $end
$var wire 1 X count~4_combout $end
$var wire 1 Y Add1~13 $end
$var wire 1 Z Add1~15 $end
$var wire 1 [ Add1~17 $end
$var wire 1 \ Add1~18_combout $end
$var wire 1 ] Add1~19 $end
$var wire 1 ^ Add1~20_combout $end
$var wire 1 _ Add1~21 $end
$var wire 1 ` Add1~22_combout $end
$var wire 1 a Add1~23 $end
$var wire 1 b Add1~25 $end
$var wire 1 c Add1~26_combout $end
$var wire 1 d count~2_combout $end
$var wire 1 e Add1~27 $end
$var wire 1 f Add1~29 $end
$var wire 1 g Add1~31 $end
$var wire 1 h Add1~32_combout $end
$var wire 1 i count~1_combout $end
$var wire 1 j Add1~33 $end
$var wire 1 k Add1~34_combout $end
$var wire 1 l count~0_combout $end
$var wire 1 m Add1~28_combout $end
$var wire 1 n Equal0~0_combout $end
$var wire 1 o Equal0~3_combout $end
$var wire 1 p Add1~14_combout $end
$var wire 1 q count~3_combout $end
$var wire 1 r Equal0~2_combout $end
$var wire 1 s Equal0~4_combout $end
$var wire 1 t count~5_combout $end
$var wire 1 u Selector0~0_combout $end
$var wire 1 v Selector2~0_combout $end
$var wire 1 w state.S2~q $end
$var wire 1 x Selector0~1_combout $end
$var wire 1 y index[1]~7 $end
$var wire 1 z index[2]~8_combout $end
$var wire 1 { index[2]~9 $end
$var wire 1 | index[3]~10_combout $end
$var wire 1 } index[3]~11 $end
$var wire 1 ~ index[4]~13 $end
$var wire 1 !! index[5]~14_combout $end
$var wire 1 "! Selector0~3_combout $end
$var wire 1 #! state.S0~q $end
$var wire 1 $! WideOr0~0_combout $end
$var wire 1 %! WideOr0~1_combout $end
$var wire 1 &! Selector0~2_combout $end
$var wire 1 '! Selector1~0_combout $end
$var wire 1 (! state.S1~q $end
$var wire 1 )! index[0]~5_combout $end
$var wire 1 *! WideOr8~2_combout $end
$var wire 1 +! index[4]~12_combout $end
$var wire 1 ,! WideOr8~3_combout $end
$var wire 1 -! WideOr7~0_combout $end
$var wire 1 .! WideOr7~1_combout $end
$var wire 1 /! WideOr7~2_combout $end
$var wire 1 0! WideOr6~0_combout $end
$var wire 1 1! WideOr6~1_combout $end
$var wire 1 2! WideOr6~2_combout $end
$var wire 1 3! data~2_combout $end
$var wire 1 4! WideOr5~0_combout $end
$var wire 1 5! WideOr5~1_combout $end
$var wire 1 6! WideOr5~2_combout $end
$var wire 1 7! WideOr4~1_combout $end
$var wire 1 8! WideOr4~0_combout $end
$var wire 1 9! WideOr4~2_combout $end
$var wire 1 :! WideOr3~0_combout $end
$var wire 1 ;! WideOr3~1_combout $end
$var wire 1 <! WideOr3~2_combout $end
$var wire 1 =! WideOr2~1_combout $end
$var wire 1 >! WideOr2~0_combout $end
$var wire 1 ?! WideOr2~2_combout $end
$var wire 1 @! WideOr1~2_combout $end
$var wire 1 A! WideOr1~4_combout $end
$var wire 1 B! WideOr1~3_combout $end
$var wire 1 C! data~3_combout $end
$var wire 1 D! data~4_combout $end
$var wire 1 E! count [17] $end
$var wire 1 F! count [16] $end
$var wire 1 G! count [15] $end
$var wire 1 H! count [14] $end
$var wire 1 I! count [13] $end
$var wire 1 J! count [12] $end
$var wire 1 K! count [11] $end
$var wire 1 L! count [10] $end
$var wire 1 M! count [9] $end
$var wire 1 N! count [8] $end
$var wire 1 O! count [7] $end
$var wire 1 P! count [6] $end
$var wire 1 Q! count [5] $end
$var wire 1 R! count [4] $end
$var wire 1 S! count [3] $end
$var wire 1 T! count [2] $end
$var wire 1 U! count [1] $end
$var wire 1 V! count [0] $end
$var wire 1 W! index [5] $end
$var wire 1 X! index [4] $end
$var wire 1 Y! index [3] $end
$var wire 1 Z! index [2] $end
$var wire 1 [! index [1] $end
$var wire 1 \! index [0] $end
$upscope $end
$upscope $end
$enddefinitions $end
#0
$dumpvars
0!
0"
0#
0$
0,
0+
1*
1)
1(
1'
0&
0%
0-
x.
0/
10
x1
12
13
14
05
06
07
08
09
0:
0;
0<
0=
1>
1?
1@
1A
0B
0C
0D
0E
0F
0G
0H
0I
0J
0K
0L
0M
1N
1O
0P
0Q
0R
1S
0T
0U
1V
0W
0X
0Y
1Z
0[
0\
1]
0^
0_
0`
1a
0b
0c
0d
1e
0f
1g
0h
0i
0j
0k
0l
0m
0n
1o
0p
0q
0r
0s
1t
0u
0v
0w
0x
0y
0z
1{
0|
0}
1~
0!!
1"!
0#!
0$!
1%!
1&!
1'!
0(!
0)!
0*!
0+!
0,!
0-!
0.!
0/!
00!
01!
02!
13!
04!
05!
16!
07!
08!
19!
0:!
0;!
1<!
0=!
0>!
0?!
0@!
0A!
0B!
0C!
0D!
0V!
0U!
0T!
0S!
0R!
0Q!
0P!
0O!
0N!
0M!
0L!
0K!
0J!
0I!
0H!
0G!
0F!
0E!
0\!
0[!
0Z!
0Y!
0X!
0W!
$end
#25000
1!
1D
1E
0.
1#!
1(!
0%!
0'!
1v
1:
1-
#50000
0!
0D
0E
1.
#75000
1!
1D
1E
0.
1w
0(!
0&!
0v
1'!
0:
0-
0'!
1v
#100000
0!
0D
0E
1.
#125000
1!
1D
1E
0.
#150000
0!
0D
0E
1.
#175000
1!
1D
1E
0.
#200000
0!
0D
0E
1.
#225000
1!
1D
1E
0.
#250000
0!
0D
0E
1.
#275000
1!
1D
1E
0.
#300000
0!
0D
0E
1.
#325000
1!
1D
1E
0.
#350000
0!
0D
0E
1.
#375000
1!
1D
1E
0.
#400000
0!
0D
0E
1.
#425000
1!
1D
1E
0.
#450000
0!
0D
0E
1.
#475000
1!
1D
1E
0.
#500000
0!
0D
0E
1.
#525000
1!
1D
1E
0.
#550000
0!
0D
0E
1.
#575000
1!
1D
1E
0.
#600000
0!
0D
0E
1.
#625000
1!
1D
1E
0.
#650000
0!
0D
0E
1.
#675000
1!
1D
1E
0.
#700000
0!
0D
0E
1.
#725000
1!
1D
1E
0.
#750000
0!
0D
0E
1.
#775000
1!
1D
1E
0.
#800000
0!
0D
0E
1.
#825000
1!
1D
1E
0.
#850000
0!
0D
0E
1.
#875000
1!
1D
1E
0.
#900000
0!
0D
0E
1.
#925000
1!
1D
1E
0.
#950000
0!
0D
0E
1.
#975000
1!
1D
1E
0.
