7주차/mul/simulation/qsim/mul.msim.vcd
$comment
	File created using the following command:
		vcd file mul.msim.vcd -direction
$end
$date
	Tue Nov 22 19:10:47 2022
$end
$version
	ModelSim Version 10.1d
$end
$timescale
	1ps
$end
$scope module mul_vlg_vec_tst $end
$var reg 1 ! clk $end
$var reg 1 " reset $end
$var reg 1 # start $end
$var reg 4 $ word1 [3:0] $end
$var reg 4 % word2 [3:0] $end
$var wire 1 & product [7] $end
$var wire 1 ' product [6] $end
$var wire 1 ( product [5] $end
$var wire 1 ) product [4] $end
$var wire 1 * product [3] $end
$var wire 1 + product [2] $end
$var wire 1 , product [1] $end
$var wire 1 - product [0] $end
$var wire 1 . ready $end
$var wire 1 / sampler $end
$scope module i1 $end
$var wire 1 0 gnd $end
$var wire 1 1 vcc $end
$var wire 1 2 unknown $end
$var tri1 1 3 devclrn $end
$var tri1 1 4 devpor $end
$var tri1 1 5 devoe $end
$var wire 1 6 u2|state.S8~q $end
$var wire 1 7 u2|Selector7~0_combout $end
$var wire 1 8 word2[1]~input_o $end
$var wire 1 9 word1[3]~input_o $end
$var wire 1 : product[0]~output_o $end
$var wire 1 ; product[1]~output_o $end
$var wire 1 < product[2]~output_o $end
$var wire 1 = product[3]~output_o $end
$var wire 1 > product[4]~output_o $end
$var wire 1 ? product[5]~output_o $end
$var wire 1 @ product[6]~output_o $end
$var wire 1 A product[7]~output_o $end
$var wire 1 B ready~output_o $end
$var wire 1 C clk~input_o $end
$var wire 1 D clk~inputclkctrl_outclk $end
$var wire 1 E start~input_o $end
$var wire 1 F u2|load~combout $end
$var wire 1 G u2|state.S1~feeder_combout $end
$var wire 1 H reset~input_o $end
$var wire 1 I reset~inputclkctrl_outclk $end
$var wire 1 J u2|state.S1~q $end
$var wire 1 K u2|Selector1~0_combout $end
$var wire 1 L u2|state.S2~q $end
$var wire 1 M u2|Selector2~0_combout $end
$var wire 1 N u2|state.S3~q $end
$var wire 1 O u2|Selector3~0_combout $end
$var wire 1 P u2|state.S4~q $end
$var wire 1 Q u2|Selector4~0_combout $end
$var wire 1 R u2|state.S5~q $end
$var wire 1 S u2|Selector5~0_combout $end
$var wire 1 T u2|state.S6~q $end
$var wire 1 U u2|Selector6~0_combout $end
$var wire 1 V u2|state.S7~q $end
$var wire 1 W u2|Selector0~0_combout $end
$var wire 1 X u2|Selector0~1_combout $end
$var wire 1 Y u2|state.S0~q $end
$var wire 1 Z word2[0]~input_o $end
$var wire 1 [ u1|product~2_combout $end
$var wire 1 \ u2|shift~0_combout $end
$var wire 1 ] u1|product[4]~3_combout $end
$var wire 1 ^ word2[2]~input_o $end
$var wire 1 _ u1|product~5_combout $end
$var wire 1 ` u1|product~4_combout $end
$var wire 1 a u2|shift~1_combout $end
$var wire 1 b u1|product~7_combout $end
$var wire 1 c word1[0]~input_o $end
$var wire 1 d u1|sum[0]~0_combout $end
$var wire 1 e u1|product~8_combout $end
$var wire 1 f u1|product[4]~12_combout $end
$var wire 1 g word2[3]~input_o $end
$var wire 1 h u1|product~6_combout $end
$var wire 1 i u1|carry~2_combout $end
$var wire 1 j word1[2]~input_o $end
$var wire 1 k word1[1]~input_o $end
$var wire 1 l u1|sum[0]~1 $end
$var wire 1 m u1|sum[1]~3 $end
$var wire 1 n u1|sum[2]~5 $end
$var wire 1 o u1|sum[3]~7 $end
$var wire 1 p u1|Add0~0_combout $end
$var wire 1 q u1|carry~5_combout $end
$var wire 1 r u1|carry~3_combout $end
$var wire 1 s u1|carry~4_combout $end
$var wire 1 t u1|carry~q $end
$var wire 1 u u1|sum[3]~6_combout $end
$var wire 1 v u1|product~11_combout $end
$var wire 1 w u1|sum[2]~4_combout $end
$var wire 1 x u1|product~10_combout $end
$var wire 1 y u1|sum[1]~2_combout $end
$var wire 1 z u1|product~9_combout $end
$var wire 1 { u2|ready~combout $end
$var wire 1 | u1|product [7] $end
$var wire 1 } u1|product [6] $end
$var wire 1 ~ u1|product [5] $end
$var wire 1 !! u1|product [4] $end
$var wire 1 "! u1|product [3] $end
$var wire 1 #! u1|product [2] $end
$var wire 1 $! u1|product [1] $end
$var wire 1 %! u1|product [0] $end
$var wire 1 &! u1|multiplicand [3] $end
$var wire 1 '! u1|multiplicand [2] $end
$var wire 1 (! u1|multiplicand [1] $end
$var wire 1 )! u1|multiplicand [0] $end
$upscope $end
$upscope $end
$enddefinitions $end
#0
$dumpvars
0!
1"
0#
b1100 $
b1010 %
0-
0,
0+
0*
0)
0(
0'
0&
0.
x/
00
11
x2
13
14
15
06
07
18
19
0:
0;
0<
0=
0>
0?
0@
0A
0B
0C
0D
0E
0F
0G
1H
1I
0J
0K
0L
0M
0N
0O
0P
0Q
0R
0S
0T
0U
0V
1W
0X
0Y
0Z
0[
1\
0]
0^
0_
0`
0a
0b
0c
0d
0e
0f
1g
0h
0i
1j
0k
0l
1m
0n
1o
0p
0q
0r
0s
0t
0u
0v
0w
0x
0y
0z
1{
0%!
0$!
0#!
0"!
0!!
0~
0}
0|
0)!
0(!
0'!
0&!
$end
#20000
b1101 $
b1011 %
1Z
1c
0/
#40000
1!
0"
1C
0H
1D
0I
1/
0{
1B
1.
#50000
1#
1E
0/
1i
1h
1f
1`
1[
0W
1F
1X
1]
1G
#80000
0!
0C
0D
1/
#120000
b101 $
b1 $
b11 %
b1 %
b0 $
b0 %
1!
0Z
08
0g
0c
0j
09
1C
1D
0/
0[
0`
0h
1Y
1J
1"!
1$!
1%!
1{
0i
0f
1_
1[
0F
0\
1K
1=
1;
1:
1*
1,
1-
0]
0G
1f
0B
0.
#130000
0#
0E
1/
#160000
0!
0C
0D
0/
#200000
1!
1C
1D
1/
1L
0J
1a
1M
1\
0K
1b
1]
#240000
0!
0C
0D
0/
#280000
1!
1C
1D
1/
1N
0L
0"!
0$!
1#!
0\
1O
0a
0M
0_
0[
1`
0=
0;
1<
0*
0,
1+
0b
0]
#320000
0!
0C
0D
0/
#360000
1!
1C
1D
1/
1P
0N
1a
1Q
1\
0O
1b
1]
#400000
0!
0C
0D
0/
#440000
1!
1C
1D
1/
1R
0P
1$!
0#!
0%!
0\
1U
0a
0Q
1[
0`
1;
0<
0:
1,
0+
0-
#480000
0!
0C
0D
0/
#520000
1!
1C
1D
1/
1V
0R
0$!
1%!
17
0U
0[
0b
0]
0;
1:
0,
1-
#560000
0!
0C
0D
0/
#600000
1!
1C
1D
1/
0V
16
1\
07
1a
0X
1b
1]
#640000
0!
0C
0D
0/
#680000
1!
1C
1D
1/
0Y
06
0%!
0{
1W
0a
1X
0:
0-
0X
0f
0b
0]
1B
1.
#720000
0!
0C
0D
0/
#760000
1!
1C
1D
1/
#800000
0!
0C
0D
0/
#840000
1!
1C
1D
1/
#880000
0!
0C
0D
0/
#920000
1!
1C
1D
1/
#960000
0!
0C
0D
0/
